%YAML 1.1
%TAG !u! tag:unity3d.com,2011:
--- !u!1045 &1
EditorBuildSettings:
  m_ObjectHideFlags: 0
  serializedVersion: 2
  m_Scenes:
  - enabled: 1
    path: Assets/Scenes/Level01.unity
    guid: 9fc0d4010bbf28b4594072e72b8655ab
  - enabled: 1
    path: Assets/Scenes/Level02.unity
    guid: b132a23603d264a14a6e2e61e49e8ef6
  - enabled: 1
    path: Assets/Scenes/Level03.unity
    guid: 69192e734098b3a4ea4ab3626380d2e6
  m_configObjects: {}
